Agenda :

1. VPC 

      VPC :
            IGW :
                Route Tables : 2 Route Tables i.e. 1 Public & 2 Private 
                    Subnets :  6 Subnets i.e. 2 Public Facing and 4 Private Facing 
                        NACL : Firewall on VPC level (All Subnets) or Each Subnet level 
                            Security Groups : 1. Bastion Server, 2. WebServer, 3 Database etc... 
                                Bastion / Jumpbox : Linux or Windows (Part of Public Subnet)
                                    To Provide internet to Private Subnet : NAT Gateway part of Public Subnet 
                                        Deploy WebApplication on Private Subnet : EC2 Instance using Autoscaling Group 
                                                    - Launch Configuration 
                                                    - AutoScaling Group 
                                            Deploy a Database on Private Subnet : EC2 with Database or AWS RDS
                                                Create a Load Balancer on Public Subnet : 
                                                    Create Route53 Hosted Zone in AWS : codewithckk.com 
                                                        Copy the Name Servers and update part of the Domain Seller i.e. godaddy.com 

                                                            Map Load Balancer in Route53 : Load Balancer Target need to be mapped 

                                                            Validate : http://codewithckk.com 

                                                            CleanUp!
                                                            